45
13
48
7
35
27
45
27
13
48
0
46
13
23
48
38
48
38
27
15
38
7
19
32
34
26
15
27
13
38
35
47
14
7
30
47
38
37
48
13
0
12
38
48
38
46
30
18
27
15
35
27
7
48
13
27
38
13
35
13
27
18
16
7
30
0
45
14
27
30
38
38
48
27
37
14
13
44
11
27
13
17
21
41
48
48
48
27
30
13
31
14
30
13
27
24
48
11
30
41
35
14
38
33
13
19
16
41
38
38
27
30
38
14
14
1
37
38
13
27
42
27
13
38
14
43
34
38
48
35
27
38
48
30
37
22
35
49
48
15
38
27
48
27
48
38
30
35
38
5
49
38
35
27
38
22
13
37
5
0
37
13
30
38
17
27
13
18
38
14
48
10
38
7
20
14
15
3
30
5
27
46
34
38
48
35
41
32
42
44
35
27
14
20
10
0
0
37
15
38
48
15
35
7
7
27
27
33
48
38
35
7
13
20
13
15
13
27
38
30
15
16
13
30
43
5
27
38
38
38
7
14
38
38
38
30
13
27
27
15
5
30
47
1
27
38
27
37
27
15
14
32
38
41
38
15
30
13
14
38
14
43
27
22
38
37
38
34
44
27
38
36
30
30
38
16
34
14
28
44
38
14
7
38
15
38
27
11
14
39
13
27
31
30
18
14
43
38
13
35
13
38
8
27
32
27
7
5
38
47
32
27
13
37
38
13
46
36
27
38
13
38
7
5
7
43
13
38
15
38
30
14
47
37
35
38
11
27
30
26
44
13
30
38
14
27
13
27
7
7
48
15
38
2
38
16
35
14
38
13
38
14
14
13
27
13
14
30
31
38
30
38
14
27
43
2
5
11
38
18
14
43
38
48
38
27
13
14
3
47
11
38
14
38
13
38
5
38
19
34
27
48
47
7
38
14
38
38
33
21
14
13
38
11
38
14
14
47
14
38
27
13
30
38
10
38
31
20
30
7
13
19
13
38
15
14
43
38
32
14
38
38
13
38
15
38
42
13
14
38
34
38
18
38
13
37
15
16
30
38
13
27
31
38
34
38
30
38
43
14
33
38
35
38
38
16
3
38
43
30
38
38
27
13
20
13
3
13
37
28
13
15
38
25
47
38
34
14
13
27
15
13
47
13
5
49
47
15
31
15
14
7
49
38
47
30
15
11
11
38
28
7
43
34
14
13
14
39
28
14
11
35
27
13
27
38
46
38
28
31
38
14
13
38
13
3
44
30
15
47
35
48
38
13
15
31
48
38
27
38
31
38
37
15
14
30
27
14
15
38
10
7
38
14
13
14
27
38
13
38
9
14
14
38
13
14
48
34
38
14
29
41
15
30
14
38
30
38
15
38
1
16
38
38
15
35
14
13
38
25
27
35
38
38
41
47
27
14
27
13
30
37
14
45
38
27
38
7
5
13
48
5
14
3
13
41
35
41
38
15
38
27
14
46
14
49
14
48
13
3
13
15
38
38
30
13
15
13
16
48
27
35
14
13
18
5
13
13
43
27
38
28
48
34
27
27
8
14
47
38
38
43
39
15
27
35
14
36
27
38
13
38
27
38
13
18
13
13
38
13
27
5
15
47
13
38
14
18
13
30
28
19
38
28
38
37
0
28
14
38
14
10
7
14
27
13
44
38
24
13
47
13
38
35
22
35
41
28
38
13
13
43
34
7
27
13
47
13
7
38
46
14
13
10
3
13
30
37
13
41
30
38
13
35
14
13
13
31
38
35
35
38
42
14
14
16
13
48
13
41
47
37
38
14
14
13
28
13
10
37
31
38
38
14
14
15
38
13
38
13
38
41
38
28
30
38
0
2
35
38
30
14
27
38
13
38
14
38
38
38
35
45
47
39
28
3
38
5
38
47
13
34
5
14
27
13
38
41
28
30
15
13
11
38
27
15
41
35
38
12
38
43
11
38
28
38
13
20
35
30
9
38
13
17
8
36
15
38
27
38
37
36
38
35
38
35
28
13
13
30
15
13
44
38
14
13
34
33
3
24
13
24
15
43
48
13
38
13
38
13
38
28
38
38
47
40
43
15
38
15
7
38
41
22
14
20
14
27
38
11
38
16
14
3
15
38
47
38
35
38
32
38
9
48
38
7
30
27
14
38
13
21
2
37
27
38
14
3
5
38
38
38
38
14
30
38
27
48
13
19
13
27
38
27
15
38
14
9
38
30
15
16
28
38
25
37
34
5
49
33
14
48
27
38
13
30
38
13
15
28
30
49
44
15
14
43
5
25
38
38
38
13
18
13
38
3
13
15
38
7
14
15
38
38
38
37
38
28
44
30
